<svg class="lds-dash-ring" width="109px"  height="109px"  xmlns="http://www.w3.org/2000/svg" xmlns:xlink="http://www.w3.org/1999/xlink" viewBox="0 0 100 100" preserveAspectRatio="xMidYMid" style="background: none;"><g transform="rotate(10 50 50)">
  <animateTransform attributeName="transform" type="rotate" values="0 50 50;120 50 50" keyTimes="0;1" dur="0.4s" repeatCount="indefinite"></animateTransform><circle cx="50" cy="50" r="40" stroke="#ffffffff" fill="none" stroke-dasharray="41.88790204786391 251.32741228718345" stroke-linecap="round" stroke-width="5" transform="rotate(0 50 50)">
  <animate attributeName="stroke" values="#ffffffff;#ffffff" keyTimes="0;1" dur="0.4s" repeatCount="indefinite"></animate>
</circle><circle cx="50" cy="50" r="40" stroke="#ffffff" fill="none" stroke-dasharray="41.88790204786391 251.32741228718345" stroke-linecap="round" stroke-width="5" transform="rotate(120 50 50)">
  <animate attributeName="stroke" values="#ffffff;#ffffff" keyTimes="0;1" dur="0.4s" repeatCount="indefinite"></animate>
</circle><circle cx="50" cy="50" r="40" stroke="#ffffff" fill="none" stroke-dasharray="41.88790204786391 251.32741228718345" stroke-linecap="round" stroke-width="5" transform="rotate(240 50 50)">
  <animate attributeName="stroke" values="#ffffff;#ffffffff" keyTimes="0;1" dur="0.4s" repeatCount="indefinite"></animate>
</circle></g></svg>